<?xml version="1.0" encoding="UTF-8"?>
<graphml>
  <graph edgedefault="directed" id="ir1">
    <node id="n0">
      <data key="type">function</data>
      <data key="name">foo</data>
      <graph edgedefault="directed" id="n0:">
        <port name="in0"/>
        <port name="in1"/>
        <port name="in2"/>
        <port name="out0"/>
        <port name="out1"/>
        <node id="n0::n0">
          <data key="type">binary</data>
          <data key="op">+</data>
          <port name="in0"/>
          <port name="in1"/>
          <port name="out0"/>
        </node>
        <node id="n0::n1">
          <data key="type">binary</data>
          <data key="op">+</data>
          <port name="in0"/>
          <port name="in1"/>
          <port name="out0"/>
        </node>
        <node id="n0::n2">
          <data key="type">binary</data>
          <data key="op">-</data>
          <port name="in0"/>
          <port name="in1"/>
          <port name="out0"/>
        </node>
        <node id="n0::n3">
          <data key="type">binary</data>
          <data key="op">-</data>
          <port name="in0"/>
          <port name="in1"/>
          <port name="out0"/>
        </node>
        <edge source="n0" sourceport="in0" target="n0::n1" targetport="in0"/>
        <edge source="n0" sourceport="in0" target="n0::n3" targetport="in0"/>
        <edge source="n0" sourceport="in1" target="n0::n1" targetport="in1"/>
        <edge source="n0" sourceport="in1" target="n0::n3" targetport="in1"/>
        <edge source="n0" sourceport="in2" target="n0::n0" targetport="in1"/>
        <edge source="n0" sourceport="in2" target="n0::n2" targetport="in1"/>
        <edge source="n0::n1" sourceport="out0" target="n0::n0" targetport="in0"/>
        <edge source="n0::n3" sourceport="out0" target="n0::n2" targetport="in0"/>
        <edge source="n0::n0" sourceport="out0" target="n0" targetport="out0"/>
        <edge source="n0::n2" sourceport="out0" target="n0" targetport="out1"/>
      </graph>
    </node>
  </graph>
</graphml>
