<?xml version="1.0" encoding="UTF-8"?>
<graphml>
  <graph edgedefault="directed" id="ir1">
    <node id="n0">
      <data key="type">function</data>
      <data key="name">Main</data>
      <data key="link_to_src">sisal_easy_attach_file:1</data>
      <port name="in0"/>
      <port name="out0"/>
      <graph edgedefault="directed" id="n0:">
        <node id="n0::n0">
          <data key="type">forall</data>
          <port name="in0"/>
          <port name="out0"/>
          <graph edgedefault="directed" id="n0::n0:">
            <node id="n0::n0::n0">
              <data key="type">rangeGen</data>
              <port name="in0"/>
              <port name="out0"/>
              <graph edgedefault="directed" id="n0::n0::n0:">
                <node id="n0::n0::n0::n0">
                  <data key="type">scatter</data>
                  <port name="in0"/>
                  <port name="out0"/>
                </node>
                <node id="n0::n0::n0::n1">
                  <data key="type">range</data>
                  <port name="in0"/>
                  <port name="in1"/>
                  <port name="out0"/>
                </node>
                <node id="n0::n0::n0::n2">
                  <data key="type">constant</data>
                  <data key="value">1</data>
                  <port name="out0"/>
                </node>
                <edge source="n0::n0::n0" sourceport="in0" target="n0::n0::n0::n1" targetport="in1"/>
                <edge source="n0::n0::n0::n0" sourceport="out0" target="n0::n0::n0" targetport="out0"/>
                <edge source="n0::n0::n0::n1" sourceport="out0"
                  target="n0::n0::n0::n0" targetport="in0"/>
                <edge source="n0::n0::n0::n2" sourceport="out0"
                  target="n0::n0::n0::n1" targetport="in0"/>
              </graph>
            </node>
            <node id="n0::n0::n1">
              <data key="type">undefined</data>
              <port name="out0"/>
            </node>
            <node id="n0::n0::n2">
              <data key="type">loopReturn</data>
              <port name="in0"/>
              <port name="in1"/>
              <port name="in2"/>
              <port name="out0"/>
              <graph edgedefault="directed" id="n0::n0::n2:">
                <node id="n0::n0::n2::n0">
                  <data key="type">constant</data>
                  <data key="value">1</data>
                  <port name="out0"/>
                </node>
                <edge source="n0::n0::n2::n0" sourceport="out0"
                  target="n0::n0::n2" targetport="out0"/>
              </graph>
            </node>
          </graph>
        </node>
        <edge source="n0" sourceport="in0" target="n0::n0" targetport="in0"/>
        <edge source="n0::n0" sourceport="out0" target="n0" targetport="out0"/>
      </graph>
    </node>
  </graph>
</graphml>
